[gd_scene load_steps=2 format=3 uid="uid://bs13wng7cxtq"]

[ext_resource type="PackedScene" uid="uid://dmvt5y88xqm25" path="res://tetro/prefab/i/i_h.tscn" id="1_61y11"]

[node name="I V" instance=ExtResource("1_61y11")]
layer_0/tile_data = PackedInt32Array(-65536, 65536, 0, -131072, 65536, 0, -196608, 65536, 0, -262144, 65536, 0)
