[gd_scene load_steps=2 format=3 uid="uid://j5okgpkmednk"]

[ext_resource type="PackedScene" uid="uid://dilb1e0y4fsfr" path="res://level.tscn" id="1_5itgo"]

[node name="Control" type="Control"]
layout_mode = 3
anchors_preset = 15
anchor_right = 1.0
anchor_bottom = 1.0
grow_horizontal = 2
grow_vertical = 2

[node name="SubViewportContainer" type="SubViewportContainer" parent="."]
layout_mode = 1
anchors_preset = 8
anchor_left = 0.5
anchor_top = 0.5
anchor_right = 0.5
anchor_bottom = 0.5
offset_left = -20.0
offset_top = -20.0
offset_right = 20.0
offset_bottom = 20.0
grow_horizontal = 2
grow_vertical = 2

[node name="SubViewport" type="SubViewport" parent="SubViewportContainer"]
handle_input_locally = false
snap_2d_transforms_to_pixel = true
snap_2d_vertices_to_pixel = true
size = Vector2i(128, 128)
render_target_update_mode = 4

[node name="World" parent="SubViewportContainer/SubViewport" instance=ExtResource("1_5itgo")]

[node name="Label" type="Label" parent="."]
layout_mode = 0
offset_right = 40.0
offset_bottom = 23.0
text = "tetro"
